{
    "@class": "com.kony.gen.viz.model.component.KVizCheckBox",
    "DNDConfig": null,
    "__parentReadjusting__": false,
    "_height_": {
        "type": "string",
        "value": "33dp"
    },
    "_left_": {
        "type": "string",
        "value": "70dp"
    },
    "_margin_": [
        0,
        0,
        0,
        0
    ],
    "_padding_": [
        0,
        0,
        0,
        0
    ],
    "_skin_": "s1a0db2422b84496b8174f24aa09bc07",
    "_top_": {
        "type": "string",
        "value": "333dp"
    },
    "_width_": {
        "type": "string",
        "value": "31.48%"
    },
    "canUpdateUI": true,
    "containerweight": 100,
    "id": "chkAgreement",
    "info": null,
    "ipad": {
        "psp": {
            "viewType": 4
        }
    },
    "iphone": {
        "psp": {
            "viewType": 4
        }
    },
    "isvisible": true,
    "itemorientation": "vertical",
    "kuid": "b4dd5ef4e57c4396bf51ac9229bbf7df",
    "masterdata": [
        [
            "cbg1",
            "I agree with"
        ]
    ],
    "name": "kony.ui.CheckBoxGroup",
    "orientation": "vertical",
    "parent": "contSignUp",
    "pf": "frmSignUp",
    "selectedkey": null,
    "selectedkeys": [
        "cbg1"
    ],
    "selectedkeyvalue": null,
    "selectedkeyvalues": [
        [
            "cbg1",
            "I agree with"
        ]
    ],
    "size": 18,
    "viewtype": 0,
    "wType": "CheckBoxGroup",
    "widgetalignment": 5,
    "zindex": 1
}