{
    "DNDConfig": null,
    "__parentReadjusting__": false,
    "_height_": {
        "type": "string",
        "value": "583dp"
    },
    "_left_": {
        "type": "string",
        "value": "0dp"
    },
    "_margin_": [
        0,
        0,
        0,
        0
    ],
    "_orientation_": 6,
    "_padding_": [
        0,
        0,
        0,
        0
    ],
    "_percent_": true,
    "_skin_": "s50a679f0cc1448aaea3684de197ac2b",
    "_top_": {
        "type": "string",
        "value": "33dp"
    },
    "_width_": {
        "type": "string",
        "value": "100%"
    },
    "allboxes": [],
    "autogrowmode": 0,
    "canUpdateUI": true,
    "children": [
        "lblLogo",
        "fldEmail",
        "fldName",
        "fldPassword",
        "fldCity",
        "chkAgreement",
        "txtTerms",
        "btnSignUp",
        "txtIsRegistered",
        "txtIsRegistered2"
    ],
    "clipbounds": true,
    "containerweight": 100,
    "enablescrolling": true,
    "id": "contSignUp",
    "info": null,
    "isvisible": true,
    "kuid": "j6e3c118a9bb47c4b7ac9ed69b059ff3",
    "layouttype": 2,
    "name": "kony.ui.FlexContainer",
    "parent": "frmSignUp",
    "pf": "frmSignUp",
    "snapgridsize": 10,
    "snaptogrid": true,
    "wType": "FlexContainer",
    "widgetalignment": 1,
    "zindex": 1
}