{
    "@class": "com.kony.gen.viz.model.component.KVizButton",
    "DNDConfig": null,
    "__parentReadjusting__": false,
    "_height_": {
        "type": "string",
        "value": "50dp"
    },
    "_left_": {
        "type": "string",
        "value": "50dp"
    },
    "_margin_": [
        6,
        6,
        6,
        6
    ],
    "_padding_": [
        0,
        0,
        0,
        0
    ],
    "_skin_": "s3f7b67f94fd421e93584987f6e357e7",
    "_text_": "Sign in with Google",
    "_top_": {
        "type": "string",
        "value": "417dp"
    },
    "_width_": {
        "type": "string",
        "value": "260dp"
    },
    "canUpdateUI": true,
    "centerx": {
        "type": "string",
        "value": "50%"
    },
    "containerweight": 100,
    "contentalignment": 5,
    "displaytext": true,
    "focusskin": "sa18c4e31a4d4822bb0562c47a2c9f77",
    "id": "btnSignInGoogle",
    "info": null,
    "isvisible": true,
    "kuid": "d302ac9514bd4047a7258b7579723831",
    "name": "kony.ui.Button",
    "parent": "contSignIn",
    "pf": "frmSignIn",
    "wType": "Button",
    "zindex": 1
}